…
link_table |>
  arrange(gvkey, datadateq)
```

```
# A tibble: 2,114,274 × 5
   gvkey  datadateq  fyearq   fyr datadate
   <chr>  <date>      <int> <int> <date>
 1 001000 1966-03-31   1966    12 1966-12-31
 2 001000 1966-06-30   1966    12 1966-12-31
 3 001000 1966-09-30   1966    12 1966-12-31
 4 001000 1966-12-31   1966    12 1966-12-31
 5 001000 1967-03-31   1967    12 1967-12-31
 6 001000 1967-06-30   1967    12 1967-12-31
 7 001000 1967-09-30   1967    12 1967-12-31
 8 001000 1967-12-31   1967    12 1967-12-31
 9 001000 1968-03-31   1968    12 1968-12-31
10 001000 1968-06-30   1968    12 1968-12-31
# ℹ 2,114,264 more rows
```
…
